{
  "state": 200,
  "request": null,
  "message": "",
  "cause": "",
  "variables": {},
  "data": {
    "dataResult": [
      {
        "pk": "",
        "name": null,
        "ip": null,
        "createBy": null,
        "createTime": 1577951144000,
        "updateBy": null,
        "updateTime": null,
        "tenantId": null,
        "dataStatus": null,
        "dbtype": null,
        "id": "662320631395647488",
        "userId": null,
        "userName": "薛玉山",
        "actionName": null,
        "instId": null,
        "parms": null,
        "taskId": null,
        "auditStatus": null,
        "cause": "服务ComplexService#complete(APIRequest,String)不可用，原因：网络超时:timeout executing POST http://ibps-business-provider/bpm/v3/bpm/task/complete",
        "appName": "商旅费控集成测试V3",
        "docNumber": "EM202001000034",
        "bukrs": "2000",
        "butxt": "湖南三一工业职业技术学院",
        "orgid": "50150639",
        "userno": "10020071",
        "bsiDesc": "商旅预定",
        "docDescription": "商旅预定|2020-01-02|1018Testing",
        "nodeName": null
      }
    ],
    "pageResult": {
      "limit": 20,
      "page": 1,
      "totalCount": 77,
      "totalPages": 4
    }
  }
}